<sdf version='1.6'>
  <world name='small_track'>
    <gui fullscreen='0'>
      <camera name='user_camera'>
        <pose frame=''>-40 40 20 0 0.667643 -1</pose>
        <view_controller>orbit</view_controller>
        <projection_type>perspective</projection_type>
      </camera>
    </gui>

    <!-- WORLD SETTINGS -->
    <scene>
      <sky>
        <clouds>
          <speed>3</speed>
        </clouds>
      </sky>
      <ambient>1.0 1.0 1.0 1.0</ambient>
      <shadows>false</shadows>
    </scene>

    <light name='sun' type='directional'>
      <cast_shadows>1</cast_shadows>
      <pose frame=''>0 0 10 0 -0 0</pose>
      <diffuse>0.8 0.8 0.8 1</diffuse>
      <specular>0.1 0.1 0.1 1</specular>
      <attenuation>
        <range>1000</range>
        <constant>0.9</constant>
        <linear>0.01</linear>
        <quadratic>0.001</quadratic>
      </attenuation>
      <direction>-0.5 0.5 -1</direction>
    </light>

    <!-- MODELS -->
    <model name='ground_plane'>
      <static>1</static>
      <link name='link'>
        <collision name='collision'>
          <geometry>
            <plane>
              <normal>0 0 1</normal>
              <size>120 120</size>
            </plane>
          </geometry>
          <surface>
            <friction>
              <ode>
                <mu>100</mu>
                <mu2>50</mu2>
              </ode>
              <torsional>
                <ode/>
              </torsional>
            </friction>
            <contact>
              <ode/>
            </contact>
            <bounce/>
          </surface>
          <max_contacts>10</max_contacts>
        </collision>
        <visual name='visual'>
          <cast_shadows>0</cast_shadows>
          <geometry>
            <plane>
              <normal>0 0 1</normal>
              <size>120 120</size>
            </plane>
          </geometry>
          <material>
            <script>
              <uri>file://materials/gazebo.material</uri>
              <name>Gazebo/Asphalt</name>
            </script>
          </material>
        </visual>
        <self_collide>0</self_collide>
        <kinematic>0</kinematic>
        <gravity>1</gravity>
      </link>
    </model>

    <include>
      <pose>-16.7219 9.56934 0.15 0 0 0</pose>
      <uri>file://models/blue_cone</uri>
      <name>blue_cone_0</name>
      
      <covariance x="0.01" y="0.01" xy="0.0"/>

    </include>

    <include>
      <pose>-12.7553 12.49 0.15 0 0 0</pose>
      <uri>file://models/blue_cone</uri>
      <name>blue_cone_1</name>
      
      <covariance x="0.01" y="0.01" xy="0.0"/>

    </include>


    <include>
      <pose>-6.89062 13.0757 0.15 0 0 0</pose>
      <uri>file://models/blue_cone</uri>
      <name>blue_cone_2</name>
      
      <covariance x="0.01" y="0.01" xy="0.0"/>

    </include>


    <include>
      <pose>9.62956 15.8379 0.15 0 0 0</pose>
      <uri>file://models/blue_cone</uri>
      <name>blue_cone_3</name>
      
      <covariance x="0.01" y="0.01" xy="0.0"/>

    </include>


    <include>
      <pose>12.492 17.0404 0.15 0 0 0</pose>
      <uri>file://models/blue_cone</uri>
      <name>blue_cone_4</name>
      
      <covariance x="0.01" y="0.01" xy="0.0"/>

    </include>


    <include>
      <pose>15.1389 16.5025 0.15 0 0 0</pose>
      <uri>file://models/blue_cone</uri>
      <name>blue_cone_5</name>
      
      <covariance x="0.01" y="0.01" xy="0.0"/>

    </include>


    <include>
      <pose>19.5034 13.6361 0.15 0 0 0</pose>
      <uri>file://models/blue_cone</uri>
      <name>blue_cone_6</name>
      
      <covariance x="0.01" y="0.01" xy="0.0"/>

    </include>


    <include>
      <pose>20.8922 11.7012 0.15 0 0 0</pose>
      <uri>file://models/blue_cone</uri>
      <name>blue_cone_7</name>
      
      <covariance x="0.01" y="0.01" xy="0.0"/>

    </include>


    <include>
      <pose>17.5221 15.3812 0.15 0 0 0</pose>
      <uri>file://models/blue_cone</uri>
      <name>blue_cone_8</name>
      
      <covariance x="0.01" y="0.01" xy="0.0"/>

    </include>


    <include>
      <pose>21.4761 8.79574 0.15 0 0 0</pose>
      <uri>file://models/blue_cone</uri>
      <name>blue_cone_9</name>
      
      <covariance x="0.01" y="0.01" xy="0.0"/>

    </include>


    <include>
      <pose>20.9992 5.27662 0.15 0 0 0</pose>
      <uri>file://models/blue_cone</uri>
      <name>blue_cone_10</name>
      
      <covariance x="0.01" y="0.01" xy="0.0"/>

    </include>


    <include>
      <pose>19.9925 2.24053 0.15 0 0 0</pose>
      <uri>file://models/blue_cone</uri>
      <name>blue_cone_11</name>
      
      <covariance x="0.01" y="0.01" xy="0.0"/>

    </include>


    <include>
      <pose>19.0983 0.0 0.15 0 0 0</pose>
      <uri>file://models/blue_cone</uri>
      <name>blue_cone_12</name>
      
      <covariance x="0.01" y="0.01" xy="0.0"/>

    </include>


    <include>
      <pose>17.1824 -3.23994 0.15 0 0 0</pose>
      <uri>file://models/blue_cone</uri>
      <name>blue_cone_13</name>
      
      <covariance x="0.01" y="0.01" xy="0.0"/>

    </include>


    <include>
      <pose>11.114 -6.74408 0.15 0 0 0</pose>
      <uri>file://models/blue_cone</uri>
      <name>blue_cone_14</name>
      
      <covariance x="0.01" y="0.01" xy="0.0"/>

    </include>


    <include>
      <pose>-4.06552 13.3637 0.15 0 0 0</pose>
      <uri>file://models/blue_cone</uri>
      <name>blue_cone_15</name>
      
      <covariance x="0.01" y="0.01" xy="0.0"/>

    </include>


    <include>
      <pose>14.2831 -5.26437 0.15 0 0 0</pose>
      <uri>file://models/blue_cone</uri>
      <name>blue_cone_16</name>
      
      <covariance x="0.01" y="0.01" xy="0.0"/>

    </include>


    <include>
      <pose>8.25363 -8.53889 0.15 0 0 0</pose>
      <uri>file://models/blue_cone</uri>
      <name>blue_cone_17</name>
      
      <covariance x="0.01" y="0.01" xy="0.0"/>

    </include>


    <include>
      <pose>5.06185 -10.1551 0.15 0 0 0</pose>
      <uri>file://models/blue_cone</uri>
      <name>blue_cone_18</name>
      
      <covariance x="0.01" y="0.01" xy="0.0"/>

    </include>


    <include>
      <pose>1.42086 -11.9634 0.15 0 0 0</pose>
      <uri>file://models/blue_cone</uri>
      <name>blue_cone_19</name>
      
      <covariance x="0.01" y="0.01" xy="0.0"/>

    </include>


    <include>
      <pose>-2.4975 -14.0305 0.15 0 0 0</pose>
      <uri>file://models/blue_cone</uri>
      <name>blue_cone_20</name>
      
      <covariance x="0.01" y="0.01" xy="0.0"/>

    </include>


    <include>
      <pose>-5.74864 -16.1217 0.15 0 0 0</pose>
      <uri>file://models/blue_cone</uri>
      <name>blue_cone_21</name>
      
      <covariance x="0.01" y="0.01" xy="0.0"/>

    </include>


    <include>
      <pose>-9.34841 -17.1551 0.15 0 0 0</pose>
      <uri>file://models/blue_cone</uri>
      <name>blue_cone_22</name>
      
      <covariance x="0.01" y="0.01" xy="0.0"/>

    </include>


    <include>
      <pose>-12.2114 -16.6459 0.15 0 0 0</pose>
      <uri>file://models/blue_cone</uri>
      <name>blue_cone_23</name>
      
      <covariance x="0.01" y="0.01" xy="0.0"/>

    </include>


    <include>
      <pose>-14.4625 -14.9249 0.15 0 0 0</pose>
      <uri>file://models/blue_cone</uri>
      <name>blue_cone_24</name>
      
      <covariance x="0.01" y="0.01" xy="0.0"/>

    </include>


    <include>
      <pose>-16.2427 -13.276 0.15 0 0 0</pose>
      <uri>file://models/blue_cone</uri>
      <name>blue_cone_25</name>
      
      <covariance x="0.01" y="0.01" xy="0.0"/>

    </include>


    <include>
      <pose>-0.131239 13.3125 0.15 0 0 0</pose>
      <uri>file://models/blue_cone</uri>
      <name>blue_cone_26</name>
      
      <covariance x="0.01" y="0.01" xy="0.0"/>

    </include>


    <include>
      <pose>-18.1431 -11.086 0.15 0 0 0</pose>
      <uri>file://models/blue_cone</uri>
      <name>blue_cone_27</name>
      
      <covariance x="0.01" y="0.01" xy="0.0"/>

    </include>


    <include>
      <pose>-18.6174 -7.56085 0.15 0 0 0</pose>
      <uri>file://models/blue_cone</uri>
      <name>blue_cone_28</name>
      
      <covariance x="0.01" y="0.01" xy="0.0"/>

    </include>


    <include>
      <pose>-18.9382 -5.15509 0.15 0 0 0</pose>
      <uri>file://models/blue_cone</uri>
      <name>blue_cone_29</name>
      
      <covariance x="0.01" y="0.01" xy="0.0"/>

    </include>


    <include>
      <pose>-18.5558 -2.56017 0.15 0 0 0</pose>
      <uri>file://models/blue_cone</uri>
      <name>blue_cone_30</name>
      
      <covariance x="0.01" y="0.01" xy="0.0"/>

    </include>


    <include>
      <pose>-18.1206 0.0 0.15 0 0 0</pose>
      <uri>file://models/blue_cone</uri>
      <name>blue_cone_31</name>
      
      <covariance x="0.01" y="0.01" xy="0.0"/>

    </include>


    <include>
      <pose>-17.7841 3.04246 0.15 0 0 0</pose>
      <uri>file://models/blue_cone</uri>
      <name>blue_cone_32</name>
      
      <covariance x="0.01" y="0.01" xy="0.0"/>

    </include>


    <include>
      <pose>-17.8432 6.27091 0.15 0 0 0</pose>
      <uri>file://models/blue_cone</uri>
      <name>blue_cone_33</name>
      
      <covariance x="0.01" y="0.01" xy="0.0"/>

    </include>


    <include>
      <pose>-15.1864 11.7137 0.15 0 0 0</pose>
      <uri>file://models/blue_cone</uri>
      <name>blue_cone_34</name>
      
      <covariance x="0.01" y="0.01" xy="0.0"/>

    </include>


    <include>
      <pose>3.50416 13.7245 0.15 0 0 0</pose>
      <uri>file://models/blue_cone</uri>
      <name>blue_cone_35</name>
      
      <covariance x="0.01" y="0.01" xy="0.0"/>

    </include>


    <include>
      <pose>7.13676 14.727 0.15 0 0 0</pose>
      <uri>file://models/blue_cone</uri>
      <name>blue_cone_36</name>
      
      <covariance x="0.01" y="0.01" xy="0.0"/>

    </include>


    <include>
      <pose>-12.2184 7.60803 0.15 0 0 0</pose>
      <uri>file://models/yellow_cone</uri>
      <name>yellow_cone_37</name>
      
      <covariance x="0.01" y="0.01" xy="0.0"/>

    </include>


    <include>
      <pose>7.14787 9.92656 0.15 0 0 0</pose>
      <uri>file://models/yellow_cone</uri>
      <name>yellow_cone_38</name>
      
      <covariance x="0.01" y="0.01" xy="0.0"/>

    </include>


    <include>
      <pose>10.4312 10.799 0.15 0 0 0</pose>
      <uri>file://models/yellow_cone</uri>
      <name>yellow_cone_39</name>
      
      <covariance x="0.01" y="0.01" xy="0.0"/>

    </include>


    <include>
      <pose>12.9655 11.8014 0.15 0 0 0</pose>
      <uri>file://models/yellow_cone</uri>
      <name>yellow_cone_40</name>
      
      <covariance x="0.01" y="0.01" xy="0.0"/>

    </include>


    <include>
      <pose>14.9652 11.2833 0.15 0 0 0</pose>
      <uri>file://models/yellow_cone</uri>
      <name>yellow_cone_41</name>
      
      <covariance x="0.01" y="0.01" xy="0.0"/>

    </include>


    <include>
      <pose>16.6054 9.12035 0.15 0 0 0</pose>
      <uri>file://models/yellow_cone</uri>
      <name>yellow_cone_42</name>
      
      <covariance x="0.01" y="0.01" xy="0.0"/>

    </include>


    <include>
      <pose>-6.90998 8.44454 0.15 0 0 0</pose>
      <uri>file://models/yellow_cone</uri>
      <name>yellow_cone_43</name>
      
      <covariance x="0.01" y="0.01" xy="0.0"/>

    </include>


    <include>
      <pose>16.7063 6.10772 0.15 0 0 0</pose>
      <uri>file://models/yellow_cone</uri>
      <name>yellow_cone_44</name>
      
      <covariance x="0.01" y="0.01" xy="0.0"/>

    </include>


    <include>
      <pose>15.876 3.47906 0.15 0 0 0</pose>
      <uri>file://models/yellow_cone</uri>
      <name>yellow_cone_45</name>
      
      <covariance x="0.01" y="0.01" xy="0.0"/>

    </include>


    <include>
      <pose>15.106 1.5027 0.15 0 0 0</pose>
      <uri>file://models/yellow_cone</uri>
      <name>yellow_cone_46</name>
      
      <covariance x="0.01" y="0.01" xy="0.0"/>

    </include>


    <include>
      <pose>13.6765 0.0 0.15 0 0 0</pose>
      <uri>file://models/yellow_cone</uri>
      <name>yellow_cone_47</name>
      
      <covariance x="0.01" y="0.01" xy="0.0"/>

    </include>


    <include>
      <pose>9.41953 -2.84739 0.15 0 0 0</pose>
      <uri>file://models/yellow_cone</uri>
      <name>yellow_cone_48</name>
      
      <covariance x="0.01" y="0.01" xy="0.0"/>

    </include>


    <include>
      <pose>12.0732 -1.43122 0.15 0 0 0</pose>
      <uri>file://models/yellow_cone</uri>
      <name>yellow_cone_49</name>
      
      <covariance x="0.01" y="0.01" xy="0.0"/>

    </include>


    <include>
      <pose>7.26282 -3.9408 0.15 0 0 0</pose>
      <uri>file://models/yellow_cone</uri>
      <name>yellow_cone_50</name>
      
      <covariance x="0.01" y="0.01" xy="0.0"/>

    </include>


    <include>
      <pose>4.65159 -5.15509 0.15 0 0 0</pose>
      <uri>file://models/yellow_cone</uri>
      <name>yellow_cone_51</name>
      
      <covariance x="0.01" y="0.01" xy="0.0"/>

    </include>


    <include>
      <pose>1.78774 -6.66723 0.15 0 0 0</pose>
      <uri>file://models/yellow_cone</uri>
      <name>yellow_cone_52</name>
      
      <covariance x="0.01" y="0.01" xy="0.0"/>

    </include>


    <include>
      <pose>-1.97969 -8.56329 0.15 0 0 0</pose>
      <uri>file://models/yellow_cone</uri>
      <name>yellow_cone_53</name>
      
      <covariance x="0.01" y="0.01" xy="0.0"/>

    </include>


    <include>
      <pose>-4.01695 8.50322 0.15 0 0 0</pose>
      <uri>file://models/yellow_cone</uri>
      <name>yellow_cone_54</name>
      
      <covariance x="0.01" y="0.01" xy="0.0"/>

    </include>


    <include>
      <pose>-5.18123 -10.5555 0.15 0 0 0</pose>
      <uri>file://models/yellow_cone</uri>
      <name>yellow_cone_55</name>
      
      <covariance x="0.01" y="0.01" xy="0.0"/>

    </include>


    <include>
      <pose>-7.57043 -12.1125 0.15 0 0 0</pose>
      <uri>file://models/yellow_cone</uri>
      <name>yellow_cone_56</name>
      
      <covariance x="0.01" y="0.01" xy="0.0"/>

    </include>


    <include>
      <pose>-9.76388 -12.7081 0.15 0 0 0</pose>
      <uri>file://models/yellow_cone</uri>
      <name>yellow_cone_57</name>
      
      <covariance x="0.01" y="0.01" xy="0.0"/>

    </include>


    <include>
      <pose>-12.0338 -11.6718 0.15 0 0 0</pose>
      <uri>file://models/yellow_cone</uri>
      <name>yellow_cone_58</name>
      
      <covariance x="0.01" y="0.01" xy="0.0"/>

    </include>


    <include>
      <pose>-13.9298 -8.98291 0.15 0 0 0</pose>
      <uri>file://models/yellow_cone</uri>
      <name>yellow_cone_59</name>
      
      <covariance x="0.01" y="0.01" xy="0.0"/>

    </include>


    <include>
      <pose>-14.1575 -5.77329 0.15 0 0 0</pose>
      <uri>file://models/yellow_cone</uri>
      <name>yellow_cone_60</name>
      
      <covariance x="0.01" y="0.01" xy="0.0"/>

    </include>


    <include>
      <pose>-14.0043 -2.62998 0.15 0 0 0</pose>
      <uri>file://models/yellow_cone</uri>
      <name>yellow_cone_61</name>
      
      <covariance x="0.01" y="0.01" xy="0.0"/>

    </include>


    <include>
      <pose>-13.6087 0.0 0.15 0 0 0</pose>
      <uri>file://models/yellow_cone</uri>
      <name>yellow_cone_62</name>
      
      <covariance x="0.01" y="0.01" xy="0.0"/>

    </include>


    <include>
      <pose>-13.3478 3.05712 0.15 0 0 0</pose>
      <uri>file://models/yellow_cone</uri>
      <name>yellow_cone_63</name>
      
      <covariance x="0.01" y="0.01" xy="0.0"/>

    </include>


    <include>
      <pose>-0.059759 8.37591 0.15 0 0 0</pose>
      <uri>file://models/yellow_cone</uri>
      <name>yellow_cone_64</name>
      
      <covariance x="0.01" y="0.01" xy="0.0"/>

    </include>


    <include>
      <pose>-13.3455 5.78808 0.15 0 0 0</pose>
      <uri>file://models/yellow_cone</uri>
      <name>yellow_cone_65</name>
      
      <covariance x="0.01" y="0.01" xy="0.0"/>

    </include>


    <include>
      <pose>3.5151 8.6968 0.15 0 0 0</pose>
      <uri>file://models/yellow_cone</uri>
      <name>yellow_cone_66</name>
      
      <covariance x="0.01" y="0.01" xy="0.0"/>

    </include>


    <include>
      <pose>-9.61314 13.0 0.15 0 0 0</pose>
      <uri>file://models/big_cone</uri>
      <name>big_cone_67</name>
      
      <covariance x="0.01" y="0.01" xy="0.0"/>

    </include>


    <include>
      <pose>-9.99934 12.989 0.15 0 0 0</pose>
      <uri>file://models/big_cone</uri>
      <name>big_cone_68</name>
      
      <covariance x="0.01" y="0.01" xy="0.0"/>

    </include>


    <include>
      <pose>-9.62148 8.39323 0.15 0 0 0</pose>
      <uri>file://models/big_cone</uri>
      <name>big_cone_69</name>
      
      <covariance x="0.01" y="0.01" xy="0.0"/>

    </include>


    <include>
      <pose>-9.98667 8.39348 0.15 0 0 0</pose>
      <uri>file://models/big_cone</uri>
      <name>big_cone_70</name>
      
      <covariance x="0.01" y="0.01" xy="0.0"/>

    </include>

    <static>0</static>
    <allow_auto_disable>1</allow_auto_disable>-->
  </world>
</sdf>
